Exploratory Data Analysis
…
Comments on each column

Description taken from one of the following: - https://www.kaggle.com/kumarajarshi/life-expectancy-who: Data Explorer -> Column - https://www.who.int/data/gho/data/indicators/indicators-index (and will be marked from )

Country

# Check for unique countries to match expectation and transform into factor class for later analysis, should be 193 countries
life_expectancy %>% 
  group_by(Country) %>%
  summarise(count = length(Country))

## # A tibble: 193 x 2
##    Country             count
##    <chr>               <int>
##  1 Afghanistan            16
##  2 Albania                16
##  3 Algeria                16
##  4 Angola                 16
##  5 Antigua and Barbuda    16
##  6 Argentina              16
##  7 Armenia                16
##  8 Australia              16
##  9 Austria                16
## 10 Azerbaijan             16
## # ... with 183 more rows
…
##    <fct>         <int>
##  1 2000             97
##  2 2001             87
##  3 2002             69
##  4 2003             51
##  5 2004             44
##  6 2005             35
##  7 2006             31
##  8 2007             23
##  9 2008             19
## 10 2009             16
## 11 2010             14
## 12 2011             12
## 13 2012             12
## # A tibble: 97 x 2
##    Country.factor      missing
##    <fct>                 <int>
##  1 Algeria                   4
##  2 Angola                    7
##  3 Antigua and Barbuda       1
##  4 Argentina                 2
##  5 Australia                 1
##  6 Azerbaijan                2
##  7 Bahamas                   1
##  8 Bangladesh                3
##  9 Barbados                  1
## 10 Benin                     2
## # ... with 87 more rows

miss_var_summary(life_expectancy)

## # A tibble: 25 x 3
##    variable            n_miss pct_miss
##    <chr>                <int>    <dbl>
##  1 Population             521   22.0  
##  2 HepatitisB             510   21.6  
##  3 GDP                    350   14.8  
##  4 IncCompOfResources     130    5.49 
##  5 Schooling              130    5.49 
##  6 TotalExpenditure        29    1.23 
##  7 BMI                     13    0.549
##  8 Thinness_1_19_years     13    0.549
##  9 Thinness_5_9_years      13    0.549
## 10 Polio                    8    0.338
## # ... with 15 more rows

# https://www.who.int/data/gho/data/indicators/indicator-details/GHO/hepatitis-b-(hepb3)-immunization-coverage-among-1-year-olds-(-)

hepB <- read.csv("./data/WSH4_117.csv", header = T, skip=1)
colnames(hepB) <- sub("X", "", colnames(hepB))
hepB <- hepB %>% select(-("2013":"2019") & -("1989":"1999"))

# Merge life_expectancy and GDP_per_capita on Year and Country to fill in GDP
# life_expectancy <- left_join(life_expectancy, hepB, by = c("Country", "Year")) %>% 
#     mutate(GDP = coalesce(GDP.x, GDP.y)) %>% 
#     select(-GDP.x,-GDP.y)

miss_var_summary(life_expectancy)

## # A tibble: 25 x 3
##    variable            n_miss pct_miss
##    <chr>                <int>    <dbl>
##  1 Population             521   22.0  
##  2 HepatitisB             510   21.6  
##  3 GDP                    350   14.8  
##  4 IncCompOfResources     130    5.49 
##  5 Schooling              130    5.49 
##  6 TotalExpenditure        29    1.23 
##  7 BMI                     13    0.549
##  8 Thinness_1_19_years     13    0.549
##  9 Thinness_5_9_years      13    0.549
## 10 Polio                    8    0.338
## # ... with 15 more rows
…
##    <fct>         <int>
##  1 2000             28
##  2 2001             27
##  3 2002             27
##  4 2003             27
##  5 2004             26
##  6 2005             26
##  7 2006             26
##  8 2007             26
##  9 2008             27
## 10 2009             27
## 11 2010             27
## 12 2011             27
## 13 2012             29
## # A tibble: 31 x 2
##    Country.factor                        missing
##    <fct>                                   <int>
##  1 Bahamas                                    13
##  2 Bolivia (Plurinational State of)           13
##  3 Congo                                      13
##  4 Cte d'Ivoire                              13
##  5 Czechia                                    13
##  6 Democratic People's Republic of Korea      13
##  7 Democratic Republic of the Congo           13
##  8 Egypt                                      13
##  9 Eritrea                                     1
## 10 Gambia                                     13
## # ... with 21 more rows
…
miss_var_summary(life_expectancy)

## # A tibble: 25 x 3
##    variable            n_miss pct_miss
##    <chr>                <int>    <dbl>
##  1 Population             521   22.0  
##  2 HepatitisB             510   21.6  
##  3 GDP                    350   14.8  
##  4 IncCompOfResources     130    5.49 
##  5 Schooling              130    5.49 
##  6 TotalExpenditure        29    1.23 
##  7 BMI                     13    0.549
##  8 Thinness_1_19_years     13    0.549
##  9 Thinness_5_9_years      13    0.549
## 10 Polio                    8    0.338
## # ... with 15 more rows

# Merge life_expectancy and GDP_per_capita on Year and Country to fill in GDP
life_expectancy <- left_join(life_expectancy, GDP_per_capita, by = c("Country", "Year")) %>% 
    mutate(GDP = coalesce(GDP.x, GDP.y)) %>% 
    select(-GDP.x,-GDP.y)

miss_var_summary(life_expectancy)

## # A tibble: 25 x 3
##    variable            n_miss pct_miss
##    <chr>                <int>    <dbl>
##  1 Population             534   22.4  
##  2 HepatitisB             517   21.7  
##  3 IncCompOfResources     130    5.46 
##  4 Schooling              130    5.46 
##  5 GDP                     50    2.10 
##  6 TotalExpenditure        29    1.22 
##  7 BMI                     13    0.546
##  8 Thinness_1_19_years     13    0.546
##  9 Thinness_5_9_years      13    0.546
## 10 Polio                    8    0.336
## # ... with 15 more rows

Population

700 N/A (out of almost 3,000 observations) Min is probably wrong (population of 34?)  Maldives 2003

miss_var_summary(life_expectancy)

## # A tibble: 25 x 3
##    variable            n_miss pct_miss
##    <chr>                <int>    <dbl>
##  1 Population             534   22.4  
##  2 HepatitisB             517   21.7  
##  3 IncCompOfResources     130    5.46 
##  4 Schooling              130    5.46 
##  5 GDP                     50    2.10 
##  6 TotalExpenditure        29    1.22 
##  7 BMI                     13    0.546
##  8 Thinness_1_19_years     13    0.546
##  9 Thinness_5_9_years      13    0.546
## 10 Polio                    8    0.336
## # ... with 15 more rows
…
##    <fct>         <int>
##  1 2000             41
##  2 2001             41
##  3 2002             41
##  4 2003             41
##  5 2004             41
##  6 2005             41
##  7 2006             41
##  8 2007             41
##  9 2008             41
## 10 2009             41
## 11 2010             41
## 12 2011             41
## 13 2012             42
## # A tibble: 41 x 2
##    Country.factor                   missing
##    <fct>                              <int>
##  1 Antigua and Barbuda                   13
##  2 Bahamas                               13
##  3 Bahrain                               13
##  4 Barbados                              13
##  5 Bolivia (Plurinational State of)      13
##  6 Brunei Darussalam                     13
##  7 Congo                                 26
##  8 Cte d'Ivoire                         13
##  9 Cuba                                  13
## 10 Czechia                               13
## # ... with 31 more rows
…
# ###DATA PREP: Merge Function for missing/incorrect data
# # Fill mising Population data from secondary source: World Banks -- indicator code:  SP.POP.TOTL
# wb_pop2 <- wb_data(indicator = "SP.POP.TOTL", country = "countries_only", start_date = 2000, end_date = 2015)
# # Grab only necessary columns and map to match dataset
# wb_pop2 <- wb_pop2 %>% select(date, SP.POP.TOTL , country)
# colnames(wb_pop2) = c("Year", "Population", "Country")

# life_expectancy_pop <- merge(life_expectancy, wb_pop2, by = c("Country","Year"))
# # which(is.na(life_expectancy_pop[,'Population']))
miss_var_summary(life_expectancy)

## # A tibble: 25 x 3
##    variable            n_miss pct_miss
##    <chr>                <int>    <dbl>
##  1 Population             534   22.4  
##  2 HepatitisB             517   21.7  
##  3 IncCompOfResources     130    5.46 
##  4 Schooling              130    5.46 
##  5 GDP                     50    2.10 
##  6 TotalExpenditure        29    1.22 
##  7 BMI                     13    0.546
##  8 Thinness_1_19_years     13    0.546
##  9 Thinness_5_9_years      13    0.546
## 10 Polio                    8    0.336
## # ... with 15 more rows

life_expectancy <- left_join(life_expectancy, wb_pop, by = c("Country", "Year")) %>% 
    mutate(Population = coalesce(Population.x, Population.y)) %>% 
    select(-Population.x,-Population.y)

miss_var_summary(life_expectancy)

## # A tibble: 25 x 3
##    variable            n_miss pct_miss
##    <chr>                <int>    <dbl>
##  1 HepatitisB             517   21.7  
##  2 IncCompOfResources     130    5.46 
##  3 Schooling              130    5.46 
##  4 GDP                     50    2.10 
##  5 TotalExpenditure        29    1.22 
##  6 BMI                     13    0.546
##  7 Thinness_1_19_years     13    0.546
##  8 Thinness_5_9_years      13    0.546
##  9 Polio                    8    0.336
## 10 Diphtheria               8    0.336
## # ... with 15 more rows
…
